…
Let's take a look at the new data set to make sure it's formatted as we intended.


```r
myDataSubset
```

```
# A tibble: 368 x 8
   CDRSB  MMSE TRABSCOR RAVLT.learning    ID   AGE PTEDUCAT   PTGENDER
   <dbl> <dbl>    <dbl>          <dbl> <dbl> <dbl>    <dbl>  <dbl+lbl>
 1 -1.44    30   -42.6            9.2   1001  69.4     14.7 2 [Male]  
 2  1.6     27   139.             1.02  1002  66.9     16.2 2 [Male]  
 3  5.19    21   246.             4.13  1011  71.8     15.4 1 [Female]
 4  4.45    25   189.             1.72  1013  71.1     12.1 2 [Male]  
 5  0.65    30   136.             3.76  1014  76.0     13.7 2 [Male]  
 6  1.63    28   197.             8     1016  74.4     17.0 1 [Female]
 7 -0.92    30    -5.85           4.03  1019  68.7     15.7 2 [Male]  
 8  0.35    30    87.7            5.95  1023  68       20.9 1 [Female]
 9  0.64    26    29.6            6.05  1025  66.9     17.5 1 [Female]
10  2.63    25   167.             2.37  1026  75.8     15.3 2 [Male]  
# â€¦ with 358 more rows
```
…
```r
myDataSubset[myDataSubset$TRABSCOR < 0, ]
```

```
# A tibble: 23 x 8
   CDRSB  MMSE TRABSCOR RAVLT.learning    ID   AGE PTEDUCAT   PTGENDER
   <dbl> <dbl>    <dbl>          <dbl> <dbl> <dbl>    <dbl>  <dbl+lbl>
 1 -1.44    30   -42.6            9.2   1001  69.4     14.7 2 [Male]  
 2 -0.92    30    -5.85           4.03  1019  68.7     15.7 2 [Male]  
 3 -4.27    30   -41.6            9.86  1077  65.6     19.1 2 [Male]  
 4 -2.14    30  -127.             9.75  1088  69.1     24.7 2 [Male]  
 5 -3.66    30   -94.0           12.2   1140  70.4     19.2 1 [Female]
 6 -3.19    30   -39.7            9.58  1147  76.0     16.7 1 [Female]
 7  0.38    30    -4.54          10.2   1153  73.7     18.0 2 [Male]  
 8 -3.12    30    -4.38           6.5   1180  75.1     19.2 2 [Male]  
 9 -0.96    30   -61.2            8.28  1229  62.0     15.3 2 [Male]  
10  0.65    28   -55.4            4.8   1338  76.3     16.2 2 [Male]  
# â€¦ with 13 more rows
```
…
